164551 165307 308
552658 552964 315
152111 152669 308
345451 346323 441
477941 478019 214
188708 189457 316
895804 895981 326
3059 3846 238
716744 717073 305
859321 859817 295
360704 361199 366
609003 609078 359
74464 75426 325
987502 988112 352
10084 10315 242
757798 757912 287
559558 559605 253
619297 619991 341
210198 210996 324
165540 165543 127
191027 191224 254
818924 819266 450
280321 280741 314
393444 393504 299
143648 143890 282
388605 388865 268
482463 482631 276
522896 523536 302
193589 194278 329
218774 219729 337
107858 108182 279
705358 705783 305
863762 864268 344
45622 45759 239
407470 407872 268
170839 171591 334
773677 774297 331
855939 855961 220
751495 751527 274
3033 3572 199
750255 750566 362
704075 704159 305
901591 902372 401
223227 223320 262
276743 277257 252
419586 420455 343
412305 412643 312
884368 884851 295
789042 789633 406
247937 248791 319
209878 210411 342
872366 872415 189
761920 762645 362
105232 105599 310
371470 372009 317
78664 79033 338
858085 858281 251
556537 557103 346
995242 995412 259
558232 559209 284
782742 782754 225
659287 659464 310
90096 90269 315
454947 454977 232
466537 467012 369
220300 220959 324
380141 380925 379
702586 703456 380
295606 295613 234
926440 926559 233
874134 874534 388
717904 718027 243
540963 541502 364
76721 76936 232
204376 204889 311
226390 226861 368
568777 569514 359
311531 312291 278
536832 537157 377
896141 896329 264
720125 720928 411
190181 190202 166
303245 303343 296
828851 829417 375
747608 748089 318
630300 630649 341
555239 555933 359
876040 876923 326
916600 917403 383
132607 133094 331
231621 232494 337
839891 840396 282
645342 645615 279
781723 782181 362
651021 651060 248
879692 879953 220
543390 543509 302
793869 794587 331
688827 689398 336
36496 36903 231
368447 369209 348
683216 683542 336
958789 959318 308
701308 701684 411
683633 684493 380
885568 885842 326
302645 303565 340
475494 475794 276
246615 247144 332
205151 206043 355
382511 382519 193
518852 519768 439
726233 727186 349
871908 872544 432
462378 463335 325
275040 275675 345
611177 611833 354
655129 655556 323
310057 310303 371
497767 497826 289
978314 978961 352
306933 307907 309
816902 817057 313
708513 708692 349
841439 841895 313
727029 727135 212
291021 291627 327
713324 713909 380
134976 135500 344
865719 866607 388
320728 321044 371
121423 122113 336
760078 760779 380
596868 597838 372
87115 87779 271
21853 22165 269
677358 678025 336
630657 631649 310
42208 42839 288
97602 97701 222
277700 278409 345
9983 10057 211
383216 383721 299
342238 342870 353
11600 11772 219
677297 678156 336
549578 550453 315
65283 66282 268
510553 511401 333
414532 414600 374
890519 890555 158
374031 374795 330
412289 413064 343
385717 386322 330
280573 281251 327
634630 634819 310
613176 614114 310
786930 787350 362
905197 905721 295
718249 719061 336
409755 409920 281
829230 830132 375
200764 200777 205
143421 144112 282
788844 788990 238
770147 770228 331
251540 252214 257
963772 964450 383
394946 395177 268
500842 501172 320
602251 602279 235
91990 92006 178
957800 958284 339
899889 900859 401
65755 66690 268
534722 535356 315
381105 381437 286
227632 228370 337
235318 235322 107
584219 584925 359
133561 134296 313
949913 949916 189
643530 643725 279
123684 124469 318
894374 894465 295
143374 144198 282
44559 44688 270
854927 855604 388
131339 131568 238
753970 754026 225
370609 371561 348
122346 122806 256
786600 787486 362
244453 244569 244
110820 111213 261
933850 933851 158
479650 480506 413
333848 334135 291
336612 337332 291
43932 44730 270
