104325 168396 383
891633 541042 525
438 136005 354
155908 730638 509
296519 759305 509
817572 349462 509
523771 772514 509
433173 622682 470
114775 562338 470
759685 528859 509
742864 745829 349
283810 891363 525
332922 76458 443
654931 735632 504
698560 104360 509
211945 389868 443
212156 172648 373
618354 108963 470
919966 694001 525
633810 836824 504
947195 495859 525
220595 938878 525
833363 644955 504
914831 796284 525
296250 306077 371
697619 952203 525
366942 803989 509
470618 437217 444
496712 152732 449
740429 918534 525
725179 839610 525
745800 491583 509
262838 98132 443
458202 312363 449
819656 44173 509
481222 282461 449
648908 409829 509
698771 94688 509
243813 703150 509
660890 176890 509
475320 755037 509
316509 380255 441
544330 761209 509
560718 409357 470
732544 997680 525
424149 634313 509
115815 584671 470
280807 197004 443
257922 353737 441
382762 556621 470
571032 926422 525
805624 104228 509
46395 950082 525
110656 723617 509
110070 846058 525
256178 223080 443
750533 21646 509
906511 999495 507
871235 531884 525
730325 95124 509
394779 880640 525
927588 163041 525
83727 257683 443
274757 133727 443
203119 959832 525
324556 314050 384
415581 721165 509
720563 780127 468
393047 771722 509
328944 585821 470
562405 402134 470
515984 238994 470
38289 45115 306
490177 660407 509
929418 533815 525
986914 219664 525
488224 655386 509
608561 763925 509
735196 484474 509
703180 902267 525
667440 414720 509
422458 885407 525
234298 796796 509
998570 709247 525
709923 641391 504
474818 272903 449
723029 908842 525
649405 352585 509
620986 337026 470
766603 730964 424
340295 563335 470
414257 166872 449
511694 576610 470
130262 49792 354
4485 478921 449
360605 112754 443
72498 591033 470
437338 208374 449
323409 559663 470
34113 344268 443
737721 872779 525
947211 939645 383
984497 265970 525
948243 983240 458
333032 113120 443
899179 272127 525
765984 325879 509
243765 337499 407
610799 312065 470
372675 520081 470
398191 124148 443
170389 16760 383
250288 772889 509
337380 947733 525
390197 222606 443
631014 565014 509
800881 545454 509
339957 126897 443
772894 677137 504
137882 897997 525
24105 206906 383
693952 101480 509
637538 393759 509
718721 821151 468
520824 298506 470
427702 147747 449
408551 493690 449
800078 732703 468
983396 547834 525
565045 618031 447
963547 35575 525
600595 834707 509
872387 722088 525
664781 282236 509
861245 142704 525
404993 566350 470
530195 353885 470
965317 328058 525
339007 258054 407
98424 36865 351
680680 186479 509
450008 187422 449
370459 220580 443
993521 282742 525
560134 790890 509
687617 979462 525
137721 962778 525
599650 122473 470
732234 109978 509
612755 52835 470
459797 693496 509
831682 529338 509
858530 793299 525
716142 476883 509
195248 745355 509
171043 831770 509
334093 65298 443
95547 224443 386
4496 442259 449
750271 455923 509
775208 850197 525
870757 12559 525
675341 815738 504
629816 963693 525
169386 553283 470
538318 135543 470
277519 267300 407
542347 743330 509
274772 438711 449
447996 166734 449
256337 890373 525
448953 754371 509
776510 999623 525
772568 170559 509
165002 743531 509
866575 382270 525
496769 171650 449
598627 44985 470
966391 549168 525
944231 231177 525
294670 448471 449
372614 324238 441
547217 146918 470
672484 245066 509
737804 96800 509
366324 7425 443
155292 536602 470
903131 615509 525
791440 134969 509
407061 259817 441
6026 321094 443
94169 644975 509
712258 495152 509
631438 73958 509
937350 225346 525
75132 555900 470
728313 436904 509
927109 455867 525
134006 930642 525
902202 42030 525
736926 537912 509
647518 638549 416
172435 589532 470
665865 427394 509
739075 552458 509
576633 896534 525
976267 683256 525
9606 733322 509
942830 366917 525
299327 221893 443
714082 354330 509
915586 636853 525
892598 958178 507
920760 818130 525
846450 66642 525
135288 678958 509
379133 645881 509
535409 592407 452
745459 900882 525
660375 465613 509
48704 81084 351
841432 469899 525
118224 971822 525
143223 972842 525
383753 491797 449
899707 248067 525
286491 496601 449
227013 177828 386
524074 924957 525
488104 315761 449
336803 463968 449
256568 58253 443
144413 890821 525
403686 346175 436
932511 958803 507
915025 604443 525
27256 869944 525
985566 447192 525
733098 510798 509
269739 804362 509
875940 840348 432
34724 980192 525
253682 411732 449
291486 801704 509
997143 246066 525
328411 840259 525
306167 402743 441
452766 102535 449
43277 325658 443
271857 306639 389
1 10 20
100 200 125
201 210 89
900 1000 174
